<svg width="23" height="23" viewBox="0 0 23 23" fill="none" xmlns="http://www.w3.org/2000/svg">
<rect x="2" width="30" height="2" transform="rotate(45 2 0)" fill="#333333"/>
<rect y="21" width="30" height="2" transform="rotate(-45 0 21)" fill="#333333"/>
</svg>
